[
    {
        "model": "auth.group",
        "pk": 1,
        "fields": {
            "name": "admin",
            "permissions": []
        }
    },
    {
        "model": "auth.group",
        "pk": 2,
        "fields": {
            "name": "apiuser",
            "permissions": []
        }
    },
    {
        "model": "auth.group",
        "pk": 3,
        "fields": {
            "name": "migration",
            "permissions": []
        }
    },
    {
        "model": "app_staffing.userrole",
        "pk": 1,
        "fields": {
            "name": "admin",
            "order": 5
        }
    },
    {
        "model": "app_staffing.userrole",
        "pk": 2,
        "fields": {
            "name": "manager",
            "order": 4
        }
    },
    {
        "model": "app_staffing.userrole",
        "pk": 3,
        "fields": {
            "name": "leader",
            "order": 3
        }
    },
    {
        "model": "app_staffing.userrole",
        "pk": 4,
        "fields": {
            "name": "member",
            "order": 2
        }
    },
    {
        "model": "app_staffing.userrole",
        "pk": 5,
        "fields": {
            "name": "guest",
            "order": 1
        }
    },
    {
        "model": "app_staffing.userrole",
        "pk": 6,
        "fields": {
            "name": "master",
            "order": 6
        }
    },
    {
        "model": "app_staffing.User",
        "pk": "1957ab0f-b47c-455a-a7b7-4453cfffd09e",
        "fields": {
            "password": "pbkdf2_sha256$120000$US5LP9lKODvn$PAB7EELzUrVFc76DRLZgqIY1HpuuIZ/hY8dT3QBJ9CI=",
            "last_login": null,
            "is_superuser": false,
            "username": "apiuser9",
            "first_name": "apiuser",
            "last_name": "apiuser",
            "email": "apiuser9@example.com",
            "email_signature": "***********\nA User of example.com\n***********\n",
            "is_staff": true,
            "is_active": true,
            "is_user_admin": true,
            "company": "3efd25d0-989a-4fba-aa8d-b91708760eb9",
            "date_joined": "2018-01-01T00:00:00Z",
            "groups": [
                2
            ],
            "user_permissions": [],
            "user_role": 6
        }
    },
    {
        "model": "app_staffing.User",
        "pk": "1957ab0f-b47c-455a-a7b7-4453cfffd08e",
        "fields": {
            "password": "pbkdf2_sha256$120000$US5LP9lKODvn$PAB7EELzUrVFc76DRLZgqIY1HpuuIZ/hY8dT3QBJ9CI=",
            "last_login": null,
            "is_superuser": false,
            "username": "apiuser8",
            "first_name": "apiuser",
            "last_name": "apiuser",
            "email": "apiuser8@example.com",
            "email_signature": "***********\nA User of example.com\n***********\n",
            "is_staff": true,
            "is_active": true,
            "is_user_admin": true,
            "company": "3efd25d0-989a-4fba-aa8d-b91708760eb8",
            "date_joined": "2018-01-01T00:00:00Z",
            "groups": [
                2
            ],
            "user_permissions": [],
            "user_role": 6
        }
    },
    {
        "model": "app_staffing.User",
        "pk": "1957ab0f-b47c-455a-a7b7-4453cfffd07e",
        "fields": {
            "password": "pbkdf2_sha256$120000$US5LP9lKODvn$PAB7EELzUrVFc76DRLZgqIY1HpuuIZ/hY8dT3QBJ9CI=",
            "last_login": null,
            "is_superuser": false,
            "username": "apiuser7",
            "first_name": "apiuser",
            "last_name": "apiuser",
            "email": "apiuser7@example.com",
            "email_signature": "***********\nA User of example.com\n***********\n",
            "is_staff": true,
            "is_active": true,
            "is_user_admin": true,
            "company": "3efd25d0-989a-4fba-aa8d-b91708760eb7",
            "date_joined": "2018-01-01T00:00:00Z",
            "groups": [
                2
            ],
            "user_permissions": [],
            "user_role": 6
        }
    },
    {
        "model": "app_staffing.User",
        "pk": "1957ab0f-b47c-455a-a7b7-4453cfffd06e",
        "fields": {
            "password": "pbkdf2_sha256$120000$US5LP9lKODvn$PAB7EELzUrVFc76DRLZgqIY1HpuuIZ/hY8dT3QBJ9CI=",
            "last_login": null,
            "is_superuser": false,
            "username": "apiuser6",
            "first_name": "apiuser",
            "last_name": "apiuser",
            "email": "apiuser6@example.com",
            "email_signature": "***********\nA User of example.com\n***********\n",
            "is_staff": true,
            "is_active": true,
            "is_user_admin": true,
            "company": "3efd25d0-989a-4fba-aa8d-b91708760eb6",
            "date_joined": "2018-01-01T00:00:00Z",
            "groups": [
                2
            ],
            "user_permissions": [],
            "user_role": 6
        }
    },
    {
        "model": "app_staffing.User",
        "pk": "1957ab0f-b47c-455a-a7b7-4453cfffd05e",
        "fields": {
            "password": "pbkdf2_sha256$120000$US5LP9lKODvn$PAB7EELzUrVFc76DRLZgqIY1HpuuIZ/hY8dT3QBJ9CI=",
            "last_login": null,
            "is_superuser": false,
            "username": "apiuser5",
            "first_name": "apiuser",
            "last_name": "apiuser",
            "email": "apiuser5@example.com",
            "email_signature": "***********\nA User of example.com\n***********\n",
            "is_staff": true,
            "is_active": true,
            "is_user_admin": true,
            "company": "3efd25d0-989a-4fba-aa8d-b91708760eb5",
            "date_joined": "2018-01-01T00:00:00Z",
            "groups": [
                2
            ],
            "user_permissions": [],
            "user_role": 6
        }
    },
    {
        "model": "app_staffing.User",
        "pk": "1957ab0f-b47c-455a-a7b7-4453cfffd04e",
        "fields": {
            "password": "pbkdf2_sha256$120000$US5LP9lKODvn$PAB7EELzUrVFc76DRLZgqIY1HpuuIZ/hY8dT3QBJ9CI=",
            "last_login": null,
            "is_superuser": false,
            "username": "apiuser4",
            "first_name": "apiuser",
            "last_name": "apiuser",
            "email": "apiuser4@example.com",
            "email_signature": "***********\nA User of example.com\n***********\n",
            "is_staff": true,
            "is_active": true,
            "is_user_admin": true,
            "company": "3efd25d0-989a-4fba-aa8d-b91708760eb4",
            "date_joined": "2018-01-01T00:00:00Z",
            "groups": [
                2
            ],
            "user_permissions": [],
            "user_role": 6
        }
    },
    {
        "model": "app_staffing.User",
        "pk": "1957ab0f-b47c-455a-a7b7-4453cfffd03e",
        "fields": {
            "password": "pbkdf2_sha256$120000$US5LP9lKODvn$PAB7EELzUrVFc76DRLZgqIY1HpuuIZ/hY8dT3QBJ9CI=",
            "last_login": null,
            "is_superuser": false,
            "username": "apiuser3",
            "first_name": "apiuser",
            "last_name": "apiuser",
            "email": "apiuser3@example.com",
            "email_signature": "***********\nA User of example.com\n***********\n",
            "is_staff": true,
            "is_active": true,
            "is_user_admin": true,
            "company": "3efd25d0-989a-4fba-aa8d-b91708760eb3",
            "date_joined": "2018-01-01T00:00:00Z",
            "groups": [
                2
            ],
            "user_permissions": [],
            "user_role": 6
        }
    },
    {
        "model": "app_staffing.User",
        "pk": "1957ab0f-b47c-455a-a7b7-4453cfffd02e",
        "fields": {
            "password": "pbkdf2_sha256$120000$US5LP9lKODvn$PAB7EELzUrVFc76DRLZgqIY1HpuuIZ/hY8dT3QBJ9CI=",
            "last_login": null,
            "is_superuser": false,
            "username": "apiuser2",
            "first_name": "apiuser",
            "last_name": "apiuser",
            "email": "apiuser2@example.com",
            "email_signature": "***********\nA User of example.com\n***********\n",
            "is_staff": true,
            "is_active": true,
            "is_user_admin": true,
            "company": "3efd25d0-989a-4fba-aa8d-b91708760eb2",
            "date_joined": "2018-01-01T00:00:00Z",
            "groups": [
                2
            ],
            "user_permissions": [],
            "user_role": 6
        }
    },
    {
        "model": "app_staffing.User",
        "pk": "1957ab0f-b47c-455a-a7b7-4453cfffd01e",
        "fields": {
            "password": "pbkdf2_sha256$120000$US5LP9lKODvn$PAB7EELzUrVFc76DRLZgqIY1HpuuIZ/hY8dT3QBJ9CI=",
            "last_login": null,
            "is_superuser": false,
            "username": "apiuser1",
            "first_name": "apiuser",
            "last_name": "apiuser",
            "email": "apiuser1@example.com",
            "email_signature": "***********\nA User of example.com\n***********\n",
            "is_staff": true,
            "is_active": true,
            "is_user_admin": true,
            "company": "3efd25d0-989a-4fba-aa8d-b91708760eb1",
            "date_joined": "2018-01-01T00:00:00Z",
            "groups": [
                2
            ],
            "user_permissions": [],
            "user_role": 6
        }
    },
    {
        "model": "app_staffing.User",
        "pk": "1957ab0f-b47c-455a-a7b7-4453cfffd00e",
        "fields": {
            "password": "pbkdf2_sha256$120000$US5LP9lKODvn$PAB7EELzUrVFc76DRLZgqIY1HpuuIZ/hY8dT3QBJ9CI=",
            "last_login": null,
            "is_superuser": false,
            "username": "apiuser",
            "first_name": "apiuser",
            "last_name": "apiuser",
            "email": "apiuser@example.com",
            "email_signature": "***********\nA User of example.com\n***********\n",
            "is_staff": true,
            "is_active": true,
            "is_user_admin": true,
            "company": "3efd25d0-989a-4fba-aa8d-b91708760eb0",
            "date_joined": "2018-01-01T00:00:00Z",
            "groups": [
                2
            ],
            "user_permissions": [],
            "user_role": 1
        }
    }
]
