[
    {
        "model": "app_staffing.organizationemployeenumber",
        "pk": 1,
        "fields": {
            "name": "very_low",
            "order": 1
        }
    },
    {
        "model": "app_staffing.organizationemployeenumber",
        "pk": 2,
        "fields": {
            "name": "low",
            "order": 2
        }
    },
    {
        "model": "app_staffing.organizationemployeenumber",
        "pk": 3,
        "fields": {
            "name": "middle",
            "order": 3
        }
    },
    {
        "model": "app_staffing.organizationemployeenumber",
        "pk": 4,
        "fields": {
            "name": "semi_middle",
            "order": 4
        }
    },
    {
        "model": "app_staffing.organizationemployeenumber",
        "pk": 5,
        "fields": {
            "name": "high",
            "order": 5
        }
    },
    {
        "model": "app_staffing.organizationemployeenumber",
        "pk": 6,
        "fields": {
            "name": "very_high",
            "order": 6
        }
    }
]
