[
    {
        "model": "app_staffing.skillpreference",
        "fields": {
            "id": "c15b42d1-a35b-4e23-b1a6-25e9747cd574",
            "name": "dev_youken"
        }
    },
    {
        "model": "app_staffing.skillpreference",
        "fields": {
            "id": "3388664b-3c08-499c-abab-489d2d451f51",
            "name": "dev_kihon"
        }
    },
    {
        "model": "app_staffing.skillpreference",
        "fields": {
            "id": "6ef90cce-237c-4d61-a3c2-74c672a58d83",
            "name": "dev_syousai"
        }
    },
    {
        "model": "app_staffing.skillpreference",
        "fields": {
            "id": "14ec5964-aebd-4d7c-9071-15200c8b6cf4",
            "name": "dev_seizou"
        }
    },
    {
        "model": "app_staffing.skillpreference",
        "fields": {
            "id": "a866c3f2-d0b9-4b74-8c8c-293bc3fb6eee",
            "name": "dev_test"
        }
    },
    {
        "model": "app_staffing.skillpreference",
        "fields": {
            "id": "1f7b8269-653e-4d79-b7c6-6471f4b3484b",
            "name": "dev_hosyu"
        }
    },
    {
        "model": "app_staffing.skillpreference",
        "fields": {
            "id": "ce993bf1-f5c1-41b8-8a80-6cf7b07dfa4b",
            "name": "dev_beginner"
        }
    },
    {
        "model": "app_staffing.skillpreference",
        "fields": {
            "id": "8ac0e552-cfd3-40a9-a5d2-5066d65fa33d",
            "name": "infra_youken"
        }
    },
    {
        "model": "app_staffing.skillpreference",
        "fields": {
            "id": "69d7ece9-ee05-457a-9de9-0465b8e87606",
            "name": "infra_kihon"
        }
    },
    {
        "model": "app_staffing.skillpreference",
        "fields": {
            "id": "092b412e-6695-4987-ad21-128a3f2f3644",
            "name": "infra_syousai"
        }
    },
    {
        "model": "app_staffing.skillpreference",
        "fields": {
            "id": "1addb397-a2cf-42d6-ba81-e77201a7688b",
            "name": "infra_kouchiku"
        }
    },
    {
        "model": "app_staffing.skillpreference",
        "fields": {
            "id": "6f994398-f031-4483-a057-2f2ed3516d05",
            "name": "infra_test"
        }
    },
    {
        "model": "app_staffing.skillpreference",
        "fields": {
            "id": "bf0ffad4-79a1-4cab-af60-d672d3a77465",
            "name": "infra_hosyu"
        }
    },
    {
        "model": "app_staffing.skillpreference",
        "fields": {
            "id": "c070b542-3a71-4755-a114-6b4456ab28c2",
            "name": "infra_kanshi"
        }
    },
    {
        "model": "app_staffing.skillpreference",
        "fields": {
            "id": "5310ac0d-a346-4455-a1aa-66da78f9b745",
            "name": "infra_beginner"
        }
    }
]
