[
    {
        "model": "app_staffing.company",
        "pk": "3efd25d0-989a-4fba-aa8d-b91708760eb9",
        "fields": {
            "name": "Tenant A",
            "domain_name": "tenant_A.com",
            "address": "東京都渋谷区恵比寿",
            "building": "ほげビル",
            "capital_man_yen": 2000,
            "establishment_date": "2000-01-01",
            "has_invoice_system": false,
            "has_haken": false,
            "has_distribution": true,
            "created_time": "2019-01-11T09:26:00.751Z"
        }
    },
    {
        "model": "app_staffing.company",
        "pk": "0639df05-8db5-40f2-a25d-6bcd3f8ae4ca",
        "fields": {
            "name": "Tenant B",
            "domain_name": "tenant_B.com",
            "capital_man_yen": 3000,
            "has_invoice_system": false,
            "has_haken": false,
            "has_distribution": false
        }
    },
    {
        "model": "app_staffing.company",
        "pk": "3efd25d0-989a-4fba-aa8d-b91708760eb1",
        "fields": {
            "name": "Tenant A",
            "domain_name": "tenant_A.com",
            "address": "東京都渋谷区恵比寿",
            "building": "ほげビル",
            "capital_man_yen": 2000,
            "establishment_date": "2000-01-01",
            "has_invoice_system": false,
            "has_haken": false,
            "has_distribution": true,
            "created_time": "2019-04-08T09:26:00.751Z"
        }
    }
]
