"取引先担当者名(姓)","取引先担当者名(名)","所属取引先","メールアドレス > TO","メールアドレス > CC","TEL","役職","部署","自社担当者(メールアドレス)","最終訪問日","タグ","相性","希望エリア > 北海道","希望エリア > 東北","希望エリア > 関東","希望エリア > 中部","希望エリア > 東海","希望エリア > 関西","希望エリア > 四国","希望エリア > 中国","希望エリア > 九州","希望エリア > その他","案件配信 > 開発 > 職種詳細 > デザイナー","案件配信 > 開発 > 職種詳細 > フロントエンド","案件配信 > 開発 > 職種詳細 > サーバサイド","案件配信 > 開発 > 職種詳細 > PM、ディレクター","案件配信 > 開発 > 職種詳細 > その他","案件配信 > 開発 > スキル詳細 > 要件定義","案件配信 > 開発 > スキル詳細 > 基本設計","案件配信 > 開発 > スキル詳細 > 詳細設計","案件配信 > 開発 > スキル詳細 > 製造","案件配信 > 開発 > スキル詳細 > テスト・検証","案件配信 > 開発 > スキル詳細 > 保守・運用","案件配信 > 開発 > スキル詳細 > 未経験","案件配信 > インフラ > 職種詳細 > サーバー","案件配信 > インフラ > 職種詳細 > ネットワーク","案件配信 > インフラ > 職種詳細 > セキュリティ","案件配信 > インフラ > 職種詳細 > データベース","案件配信 > インフラ > 職種詳細 > 情報システム","案件配信 > インフラ > 職種詳細 > その他","案件配信 > インフラ > スキル詳細 > 要件定義","案件配信 > インフラ > スキル詳細 > 基本設計","案件配信 > インフラ > スキル詳細 > 詳細設計","案件配信 > インフラ > スキル詳細 > 構築","案件配信 > インフラ > スキル詳細 > テスト・検証","案件配信 > インフラ > スキル詳細 > 保守・運用","案件配信 > インフラ > スキル詳細 > 監視","案件配信 > インフラ > スキル詳細 > 未経験","案件配信 > その他 > 職種詳細 > 営業・事務","案件配信 > その他 > 職種詳細 > 基地局","案件配信 > その他 > 職種詳細 > コールセンター・サポートデスク","案件配信 > その他 > 職種詳細 > その他","案件配信 > 商流制限","要員配信 > 開発 > 職種詳細 > デザイナー","要員配信 > 開発 > 職種詳細 > フロントエンド","要員配信 > 開発 > 職種詳細 > サーバサイド","要員配信 > 開発 > 職種詳細 > PM、ディレクター","要員配信 > 開発 > 職種詳細 > その他","要員配信 > 開発 > スキル詳細 > 要件定義","要員配信 > 開発 > スキル詳細 > 基本設計","要員配信 > 開発 > スキル詳細 > 詳細設計","要員配信 > 開発 > スキル詳細 > 製造","要員配信 > 開発 > スキル詳細 > テスト・検証","要員配信 > 開発 > スキル詳細 > 保守・運用","要員配信 > 開発 > スキル詳細 > 未経験","要員配信 > インフラ > 職種詳細 > サーバー","要員配信 > インフラ > 職種詳細 > ネットワーク","要員配信 > インフラ > 職種詳細 > セキュリティ","要員配信 > インフラ > 職種詳細 > データベース","要員配信 > インフラ > 職種詳細 > 情報システム","要員配信 > インフラ > 職種詳細 > その他","要員配信 > インフラ > スキル詳細 > 要件定義","要員配信 > インフラ > スキル詳細 > 基本設計","要員配信 > インフラ > スキル詳細 > 詳細設計","要員配信 > インフラ > スキル詳細 > 構築","要員配信 > インフラ > スキル詳細 > テスト・検証","要員配信 > インフラ > スキル詳細 > 保守・運用","要員配信 > インフラ > スキル詳細 > 監視","要員配信 > インフラ > スキル詳細 > 未経験","要員配信 > その他 > 職種詳細 > 営業・事務","要員配信 > その他 > 職種詳細 > 基地局","要員配信 > その他 > 職種詳細 > コールセンター・サポートデスク","要員配信 > その他 > 職種詳細 > その他","要員配信 > 希望雇用形態 > プロパー","要員配信 > 希望雇用形態 > フリーランス","要員配信 > 商流制限"
"サンプルA姓 SPACE1","サンプルA名","株式会社サンプルA","sample-a1@example.com","sample-b@example.com","010-2345-6789","サンプル役職","サンプル部署","sample-user@example.com","2020-12-31","TagA,TagB,TagC","良い","1","1","1","1","1","1","1","1","1","1","1","1","1","1","1","1","1","1","1","1","1","1","1","1","1","1","1","1","1","1","1","1","1","1","1","1","1","1","1","1","なし","1","1","1","1","1","1","1","1","1","1","1","1","1","1","1","1","1","1","1","1","1","1","1","1","1","1","1","1","1","1","1","1","なし"
"サンプル  B姓SPACE2","サンプルB名","株式会社サンプルA","sample-b1@example.com","sample-c@example.com","010-2345-6789","サンプル役職","サンプル部署","sample-user@example.com","2020-12-31","TagA","良い","1","1","1","1","1","1","1","1","1","1","1","1","1","1","1","1","1","1","1","1","1","1","1","1","1","1","1","1","1","1","1","1","1","1","1","1","1","1","1","1","エンド直・元請直まで","1","1","1","1","1","1","1","1","1","1","1","1","1","1","1","1","1","1","1","1","1","1","1","1","1","1","1","1","1","1","1","1","自社所属まで"
"サンプル   C姓SPACE3","サンプルC名","株式会社サンプルA","sample-c1@example.com","sample-a@example.com","010-2345-6789","サンプル役職","サンプル部署","sample-user@example.com","2020-12-31","","悪い","0","0","0","0","0","0","0","0","0","0","0","0","0","0","0","0","0","0","0","0","0","0","0","0","0","0","0","0","0","0","0","0","0","0","0","0","0","0","0","0","1次請まで","0","0","0","0","0","0","0","0","0","0","0","0","0","0","0","0","0","0","0","0","0","0","0","0","0","0","0","0","0","0","0","0","1社先所属まで"
