[
  {
    "model": "app_staffing.organizationcategory",
    "pk": 1,
    "fields": {
        "name": "prospective",
        "order": 1
    }
  },
  {
    "model": "app_staffing.organizationcategory",
    "pk": 2,
    "fields": {
        "name": "approached",
        "order": 2
    }
  },
  {
    "model": "app_staffing.organizationcategory",
    "pk": 3,
    "fields": {
        "name": "exchanged",
        "order": 3
    }
  },
  {
    "model": "app_staffing.organizationcategory",
    "pk": 4,
    "fields": {
        "name": "client",
        "order": 4
    }
  },
  {
    "model": "app_staffing.organizationcategory",
    "pk": 5,
    "fields": {
        "name": "blacklist",
        "order": 5
    }
  },
  {
    "model": "app_staffing.organizationcountry",
    "pk": 1,
    "fields": {
        "name": "JP",
        "order": 1
    }
  },
  {
    "model": "app_staffing.organizationcountry",
    "pk": 2,
    "fields": {
        "name": "KR",
        "order": 2
    }
  },
  {
    "model": "app_staffing.organizationcountry",
    "pk": 3,
    "fields": {
        "name": "CN",
        "order": 3
    }
  },
  {
    "model": "app_staffing.organizationcountry",
    "pk": 4,
    "fields": {
        "name": "OTHER",
        "order": 4
    }
  },
  {
    "model": "app_staffing.organizationemployeenumber",
    "pk": 1,
    "fields": {
        "name": "very_low",
        "order": 1
    }
  },
  {
    "model": "app_staffing.organizationemployeenumber",
    "pk": 2,
    "fields": {
        "name": "low",
        "order": 2
    }
  },
  {
    "model": "app_staffing.organizationemployeenumber",
    "pk": 3,
    "fields": {
        "name": "middle",
        "order": 3
    }
  },
  {
    "model": "app_staffing.organizationemployeenumber",
    "pk": 4,
    "fields": {
        "name": "semi_middle",
        "order": 4
    }
  },
  {
    "model": "app_staffing.organizationemployeenumber",
    "pk": 5,
    "fields": {
        "name": "high",
        "order": 5
    }
  },
  {
    "model": "app_staffing.organizationemployeenumber",
    "pk": 6,
    "fields": {
        "name": "very_high",
        "order": 6
    }
  },
  {
    "model": "app_staffing.organization",
    "pk": "749303ca-7701-463e-83a8-8a5a35df1646",
    "fields": {
      "company": "3efd25d0-989a-4fba-aa8d-b91708760eb1",
      "created_user": "d31034e2-ca12-4a6f-b1dc-0be092d1ac5d",
      "created_time": "2019-04-09T07:42:27.484Z",
      "modified_user": "d31034e2-ca12-4a6f-b1dc-0be092d1ac5d",
      "modified_time": "2019-04-09T07:42:27.484Z",
      "corporate_number": 123,
      "name": "株式会社サンプルA",
      "address": "\u6771\u4eac\u90fd\u5343\u4ee3\u7530\u533a\u4e38\u306e\u5185X-X-X",
      "building": "building",
      "capital_man_yen": 2000,
      "capital_man_yen_required_for_transactions": 1000,
      "establishment_year": 10,
      "score": 3,
      "contract": true,
      "is_blacklisted": false,
      "organization_category": 4,
      "organization_employee_number": 1,
      "organization_country": 1
    }
  },
  {
    "model": "app_staffing.organization",
    "pk": "749303ca-7701-463e-83a8-8a5a35df1647",
    "fields": {
      "company": "3efd25d0-989a-4fba-aa8d-b91708760eb1",
      "created_user": "d31034e2-ca12-4a6f-b1dc-0be092d1ac5d",
      "created_time": "2019-04-09T07:42:27.484Z",
      "modified_user": "d31034e2-ca12-4a6f-b1dc-0be092d1ac5d",
      "modified_time": "2019-04-09T07:42:27.484Z",
      "corporate_number": 1234,
      "name": "株式会社サンプルB",
      "address": "\u6771\u4eac\u90fd\u5343\u4ee3\u7530\u533a\u4e38\u306e\u5185X-X-X",
      "building": "building",
      "capital_man_yen": 2000,
      "capital_man_yen_required_for_transactions": 1000,
      "establishment_year": 10,
      "score": 3,
      "contract": true,
      "is_blacklisted": false,
      "organization_category": 4,
      "organization_employee_number": 1,
      "organization_country": 1
    }
  },
  {
    "model": "app_staffing.organization",
    "pk": "749303ca-7701-463e-83a8-8a5a35df1648",
    "fields": {
      "company": "3efd25d0-989a-4fba-aa8d-b91708760eb1",
      "created_user": "d31034e2-ca12-4a6f-b1dc-0be092d1ac5d",
      "created_time": "2019-04-09T07:42:27.484Z",
      "modified_user": "d31034e2-ca12-4a6f-b1dc-0be092d1ac5d",
      "modified_time": "2019-04-09T07:42:27.484Z",
      "corporate_number": 12345,
      "name": "株式会社サンプルC",
      "address": "\u6771\u4eac\u90fd\u5343\u4ee3\u7530\u533a\u4e38\u306e\u5185X-X-X",
      "building": "building",
      "capital_man_yen": 2000,
      "capital_man_yen_required_for_transactions": 1000,
      "establishment_year": 10,
      "score": 3,
      "contract": true,
      "is_blacklisted": false,
      "organization_category": 4,
      "organization_employee_number": 1,
      "organization_country": 1
    }
  },
  {
    "model": "app_staffing.User",
    "pk": "d31034e2-ca12-4a6f-b1dc-0be092d1ac5e",
    "fields": {
      "password": "pbkdf2_sha256$120000$US5LP9lKODvn$PAB7EELzUrVFc76DRLZgqIY1HpuuIZ/hY8dT3QBJ9CI=",
      "last_login": "2018-01-01T00:00:00Z",
      "is_superuser": false,
      "username": "sample-user@example.com",
      "first_name": "ユーザー",
      "last_name": "サンプル",
      "email": "sample-user@example.com",
      "email_signature": "***********\nA User of example.com\n***********\n",
      "is_staff": false,
      "is_active": true,
      "is_user_admin": false,
      "company": "3efd25d0-989a-4fba-aa8d-b91708760eb1",
      "date_joined": "2018-01-01T00:00:00Z",
      "groups": [],
      "user_permissions": []
    }
  }
]
