[
    {
        "model": "app_staffing.emailnotificationcondition",
        "pk": "0320D990-B897-4D96-8BCC-49405527ED8C",
        "fields": {
            "order": 0,
            "rule": "02724441-8967-4008-AB1D-600035D5A161",
            "extraction_type": "keyword",
            "target_type": "subject",
            "condition_type": "include",
            "value": "hogehoge"
        }
    },
    {
        "model": "app_staffing.emailnotificationcondition",
        "pk": "0320D990-B897-4D96-8BCC-49405527ED1C",
        "fields": {
            "order": 1,
            "rule": "02724441-8967-4008-AB1D-600035D5A161",
            "extraction_type": "keyword",
            "target_type": "content",
            "condition_type": "include",
            "value": "fugafuga"
        }
    },
    {
        "model": "app_staffing.emailnotificationcondition",
        "pk": "0320D990-B897-4D96-8BCC-49405527ED2C",
        "fields": {
            "order": 0,
            "rule": "02724441-8967-4008-AB1D-600035D5A162",
            "extraction_type": "keyword",
            "target_type": "content",
            "condition_type": "include",
            "value": "fugafuga"
        }
    },
    {
        "model": "app_staffing.emailnotificationcondition",
        "pk": "0320D990-B897-4D96-8BCC-49405527ED3C",
        "fields": {
            "order": 0,
            "rule": "02724441-8967-4008-AB1D-600035D5A163",
            "extraction_type": "keyword",
            "target_type": "subject",
            "condition_type": "include",
            "value": "hogehoge"
        }
    }
]
