[
    {
        "model": "app_staffing.scheduledemailopenhistory",
        "pk": "e57a0a67-a005-4cf7-9f26-62d089bfdd32",
        "fields": {
            "email": "185c2a9b-ec13-4194-bd85-386de64f5ee4",
            "contact": "78630567-72ce-49a3-84e6-8947b5b057f3",
            "opened_time": "2019-05-14T05:59:08.878Z"
        }
    }
]
