[
    {
        "model": "auth.group",
        "pk": 1,
        "fields": {
            "name": "admin",
            "permissions": []
        }
    },
    {
        "model": "auth.group",
        "pk": 2,
        "fields": {
            "name": "apiuser",
            "permissions": []
        }
    },
    {
        "model": "auth.group",
        "pk": 3,
        "fields": {
            "name": "migration",
            "permissions": []
        }
    },
    {
        "model": "app_staffing.userrole",
        "pk": 1,
        "fields": {
            "name": "admin",
            "order": 5
        }
    },
    {
        "model": "app_staffing.userrole",
        "pk": 2,
        "fields": {
            "name": "manager",
            "order": 4
        }
    },
    {
        "model": "app_staffing.userrole",
        "pk": 3,
        "fields": {
            "name": "leader",
            "order": 3
        }
    },
    {
        "model": "app_staffing.userrole",
        "pk": 4,
        "fields": {
            "name": "member",
            "order": 2
        }
    },
    {
        "model": "app_staffing.userrole",
        "pk": 5,
        "fields": {
            "name": "guest",
            "order": 1
        }
    },
    {
        "model": "app_staffing.userrole",
        "pk": 6,
        "fields": {
            "name": "master",
            "order": 6
        }
    },
    {
        "model": "app_staffing.User",
        "pk": "6dba67ff-4bb7-4210-afec-f6fbec1c5fcb",
        "fields": {
            "password": "pbkdf2_sha256$120000$US5LP9lKODvn$PAB7EELzUrVFc76DRLZgqIY1HpuuIZ/hY8dT3QBJ9CI=",
            "last_login": null,
            "is_superuser": true,
            "username": "admin",
            "user_service_id": "user_3658475843",
            "first_name": "",
            "last_name": "",
            "email": "admin@example.com",
            "email_signature": "===========\nThe admin\n===========",
            "is_staff": true,
            "is_active": true,
            "is_user_admin": true,
            "company": "3efd25d0-989a-4fba-aa8d-b91708760eb1",
            "date_joined": "2018-01-01T00:00:00Z",
            "groups": [
                1
            ],
            "user_permissions": [],
            "user_role": 1
        }
    },
    {
        "model": "app_staffing.User",
        "pk": "1957ab0f-b47c-455a-a7b7-4453cfffd05e",
        "fields": {
            "password": "pbkdf2_sha256$120000$US5LP9lKODvn$PAB7EELzUrVFc76DRLZgqIY1HpuuIZ/hY8dT3QBJ9CI=",
            "last_login": null,
            "is_superuser": false,
            "username": "apiuser",
            "user_service_id": "user_3658475844",
            "first_name": "",
            "last_name": "",
            "email": "apiuser@example.com",
            "email_signature": "***********\nA User of example.com\n***********\n",
            "is_staff": true,
            "is_active": true,
            "is_user_admin": true,
            "company": "3efd25d0-989a-4fba-aa8d-b91708760eb1",
            "date_joined": "2018-01-01T00:00:00Z",
            "groups": [
                2
            ],
            "user_permissions": [],
            "user_role": 1
        }
    },
    {
        "model": "app_staffing.User",
        "pk": "67449fa2-771d-4ffa-bab3-fa160fdf716f",
        "fields": {
            "password": "pbkdf2_sha256$120000$US5LP9lKODvn$PAB7EELzUrVFc76DRLZgqIY1HpuuIZ/hY8dT3QBJ9CI=",
            "last_login": null,
            "is_superuser": false,
            "username": "readonlyuser",
            "user_service_id": "user_3658475845",
            "first_name": "",
            "last_name": "",
            "email": "readonlyuser@example.com",
            "email_signature": "***********\nA User of example.com\n***********\n",
            "is_staff": false,
            "is_active": true,
            "is_user_admin": false,
            "company": "3efd25d0-989a-4fba-aa8d-b91708760eb1",
            "date_joined": "2018-01-01T00:00:00Z",
            "groups": [],
            "user_permissions": [],
            "user_role": 4
        }
    },
    {
        "model": "app_staffing.User",
        "pk": "d31034e2-ca12-4a6f-b1dc-0be092d1ac5d",
        "fields": {
            "password": "pbkdf2_sha256$120000$US5LP9lKODvn$PAB7EELzUrVFc76DRLZgqIY1HpuuIZ/hY8dT3QBJ9CI=",
            "last_login": "2018-01-01T00:00:00Z",
            "is_superuser": false,
            "username": "user@example.com",
            "user_service_id": "user_3658475846",
            "first_name": "NORMAL USER",
            "last_name": "TEST",
            "email": "user@example.com",
            "email_signature": "***********\nA User of example.com\n***********\n",
            "tel1": "012",
            "tel2": "3456",
            "tel3": "7890",
            "is_staff": false,
            "is_active": true,
            "is_user_admin": false,
            "company": "3efd25d0-989a-4fba-aa8d-b91708760eb1",
            "date_joined": "2018-01-01T00:00:00Z",
            "groups": [],
            "user_permissions": [],
            "user_role": 4
        }
    },
        {
        "model": "app_staffing.User",
        "pk": "1dae6212-0ff4-40e4-86e1-bd73664a8b13",
        "fields": {
            "password": "pbkdf2_sha256$120000$vsSt0wgj4Hzx$mAUbfHIrbA+Q7/j+w120KD4LbZ2G1pZaeBJesOtBC+o=",
            "last_login": "2018-01-01T00:00:00Z",
            "is_superuser": false,
            "username": "useradmin@example.com",
            "user_service_id": "user_3658475847",
            "first_name": "USER ADMIN",
            "last_name": "TEST",
            "email": "useradmin@example.com",
            "email_signature": "***********\nAn Admin of example.com\n***********\n",
            "tel1": "090",
            "tel2": "1234",
            "tel3": "5678",
            "is_staff": false,
            "is_active": true,
            "is_user_admin": true,
            "company": "3efd25d0-989a-4fba-aa8d-b91708760eb1",
            "date_joined": "2018-01-01T00:00:00Z",
            "groups": [],
            "user_permissions": [],
            "user_role": 1
        }
    },
    {
        "model": "app_staffing.User",
        "pk": "0bf08618-73c5-4217-ba05-256d0d864be9",
        "fields": {
            "password": "pbkdf2_sha256$120000$US5LP9lKODvn$PAB7EELzUrVFc76DRLZgqIY1HpuuIZ/hY8dT3QBJ9CI=",
            "last_login": "2018-01-01T00:00:00Z",
            "is_superuser": false,
            "username": "user@tenant_B.com",
            "user_service_id": "user_3658475848",
            "first_name": "NORMAL USER",
            "last_name": "TEST TenantB",
            "email": "user@tenant_B.com",
            "email_signature": "***********\nA User of tenant_B.com\n***********\n",
            "tel1": "022",
            "tel2": "3456",
            "tel3": "7890",
            "is_staff": false,
            "is_active": true,
            "is_user_admin": false,
            "company": "0639df05-8db5-40f2-a25d-6bcd3f8ae4ca",
            "date_joined": "2018-01-01T00:00:00Z",
            "groups": [],
            "user_permissions": [],
            "user_role": 4
        }
    },
    {
        "model": "app_staffing.User",
        "pk": "9dd08e5f-fab1-4ffb-bfdf-b9436376ccdc",
        "fields": {
            "password": "pbkdf2_sha256$120000$vsSt0wgj4Hzx$mAUbfHIrbA+Q7/j+w120KD4LbZ2G1pZaeBJesOtBC+o=",
            "last_login": "2018-01-01T00:00:00Z",
            "is_superuser": false,
            "username": "useradmin@tenant_B.com",
            "user_service_id": "user_3658475849",
            "first_name": "USER ADMIN",
            "last_name": "TEST <TenantB>",
            "email": "useradmin@tenant_B.com",
            "email_signature": "***********\nAn Admin of tenant_B.com\n***********\n",
            "tel1": "080",
            "tel2": "1234",
            "tel3": "5678",
            "is_staff": false,
            "is_active": true,
            "is_user_admin": true,
            "company": "0639df05-8db5-40f2-a25d-6bcd3f8ae4ca",
            "date_joined": "2018-01-01T00:00:00Z",
            "groups": [],
            "user_permissions": [],
            "user_role": 1
        }
    },
    {
    "model": "app_staffing.user",
    "pk": "e9b04508-398d-4d21-9a4c-921fac05e742",
    "fields": {
      "password": "pbkdf2_sha256$120000$0CRAOpE7Vopn$BE5jdLhOlu1BkjUAeSZIqEd8mcUErBGa0eB5vXgrVSA=",
      "last_login": null,
      "is_superuser": false,
      "username": "migration",
      "user_service_id": "user_3658475850",
      "first_name": "",
      "last_name": "",
      "email": "migration@example.com",
      "is_staff": true,
      "is_active": true,
      "date_joined": "2019-06-27T00:39:17Z",
      "is_user_admin": false,
      "company": "3efd25d0-989a-4fba-aa8d-b91708760eb1",
      "email_signature": "***********\nA User of example.com\n***********\n",
      "old_id": null,
      "groups": [
        3
      ],
      "user_permissions": [],
      "user_role": 4
    }
  },
  {
    "model": "app_staffing.User",
    "pk": "9dd08e5f-fab1-4ffb-bfdf-b9436376ccd1",
    "fields": {
        "password": "pbkdf2_sha256$120000$vsSt0wgj4Hzx$mAUbfHIrbA+Q7/j+w120KD4LbZ2G1pZaeBJesOtBC+o=",
        "last_login": "2018-01-01T00:00:00Z",
        "is_superuser": false,
        "username": "useradmin777@tenant_B.com",
        "user_service_id": "user_3658475851",
        "first_name": "USER ADMIN",
        "last_name": "TEST <TenantB>",
        "email": "useradmin777@tenant_B.com",
        "email_signature": "***********\nAn Admin of tenant_B.com\n***********\n",
        "tel1": "080",
        "tel2": "1234",
        "tel3": "5678",
        "is_staff": false,
        "is_active": true,
        "is_user_admin": true,
        "company": "323d0e3d-61a2-4cb1-b094-4338c90aa95a",
        "date_joined": "2018-01-01T00:00:00Z",
        "groups": [],
        "user_permissions": [],
        "user_role": 1
    }
  },
  {
    "model": "app_staffing.User",
    "pk": "6851d133-281b-4b4f-a3b8-6ff35bfd43f1",
    "fields": {
        "password": "pbkdf2_sha256$150000$VELyk90zIvYo$eJfb2Dsbzi0gjW/woF2ZRdLKrjf23tnmV5lM2Myg618=",
        "last_login": "2018-01-01T00:00:00Z",
        "is_superuser": false,
        "username": "useravatar@delete.com",
        "first_name": "USER AVATAR",
        "last_name": "TEST <TenantB>",
        "email": "useravatar@delete.com",
        "email_signature": "***********\nAn Avatar of delete.com\n***********\n",
        "tel1": "098",
        "tel2": "765",
        "tel3": "4321",
        "is_staff": false,
        "is_active": true,
        "is_user_admin": true,
        "company": "323d0e3d-61a2-4cb1-b094-4338c90aa95a",
        "date_joined": "2018-01-01T00:00:00Z",
        "groups": [],
        "user_permissions": [],
        "user_role": 4,
        "avatar": "/users/avatar/6851d133-281b-4b4f-a3b8-6ff35bfd43f1.png"
    }
  }
]
