[
  {
    "model": "app_staffing.contactpersonnelskillpreference",
    "pk": "63307344-0496-48e9-80dd-777f10022e61",
    "fields": {
      "company": "3efd25d0-989a-4fba-aa8d-b91708760eb1",
      "contact_id": "78630567-72ce-49a3-84e6-8947b5b057f3",
      "created_user": "1957ab0f-b47c-455a-a7b7-4453cfffd05e",
      "created_time": "2019-04-10T09:14:40.795Z",
      "modified_user": "1957ab0f-b47c-455a-a7b7-4453cfffd05e",
      "modified_time": "2019-04-10T09:14:40.795Z",
      "skill_preference_id": "185c2a9b-ec13-4194-bd85-386de64f5ee2"
    }
  },
  {
    "model": "app_staffing.contactpersonnelskillpreference",
    "pk": "63307344-0496-48e9-80dd-777f10022e62",
    "fields": {
      "company": "3efd25d0-989a-4fba-aa8d-b91708760eb1",
      "contact_id": "4acfeb11-e071-4901-ba90-4aeed52895d1",
      "created_user": "1957ab0f-b47c-455a-a7b7-4453cfffd05e",
      "created_time": "2019-04-10T09:14:40.795Z",
      "modified_user": "1957ab0f-b47c-455a-a7b7-4453cfffd05e",
      "modified_time": "2019-04-10T09:14:40.795Z",
      "skill_preference_id": "5737b0a8-5a99-4254-8798-b8c4a475cc22"
    }
  }
]
