[
  {
    "model": "app_staffing.contactpreference",
    "pk": "63307344-0496-48e9-80dd-777f10022e61",
    "fields": {
      "company": "3efd25d0-989a-4fba-aa8d-b91708760eb1",
      "contact_id": "78630567-72ce-49a3-84e6-8947b5b057f3",
      "created_user": "1957ab0f-b47c-455a-a7b7-4453cfffd05e",
      "created_time": "2019-04-10T09:14:40.795Z",
      "modified_user": "1957ab0f-b47c-455a-a7b7-4453cfffd05e",
      "modified_time": "2019-04-10T09:14:40.795Z",
      "wants_location_hokkaido_japan": true,
      "wants_location_touhoku_japan": true,
      "wants_location_kanto_japan": true,
      "wants_location_kansai_japan": true,
      "wants_location_chubu_japan": true,
      "wants_location_kyushu_japan": true,
      "wants_location_other_japan": true,
      "wants_location_chugoku_japan": true,
      "wants_location_shikoku_japan": true,
      "wants_location_toukai_japan": true,
      "job_koyou_proper": true,
      "job_koyou_free": true,
      "job_syouryu": 1,
      "personnel_syouryu": 1,
      "personnel_country_japan": true,
      "personnel_country_other": true
    }
  },
  {
    "model": "app_staffing.contactpreference",
    "pk": "1af3aabb-4e7e-4089-9392-585f9e1a0516",
    "fields": {
      "company": "3efd25d0-989a-4fba-aa8d-b91708760eb1",
      "contact_id": "aa8f0a2b-acc5-4908-b4d0-918078a9373a",
      "created_user": "1957ab0f-b47c-455a-a7b7-4453cfffd05e",
      "created_time": "2019-04-10T09:14:40.795Z",
      "modified_user": "1957ab0f-b47c-455a-a7b7-4453cfffd05e",
      "modified_time": "2019-04-10T09:14:40.795Z",
      "wants_location_hokkaido_japan": true,
      "wants_location_touhoku_japan": true,
      "wants_location_kanto_japan": true,
      "wants_location_kansai_japan": true,
      "wants_location_chubu_japan": true,
      "wants_location_kyushu_japan": true,
      "wants_location_other_japan": true,
      "wants_location_chugoku_japan": true,
      "wants_location_shikoku_japan": true,
      "wants_location_toukai_japan": true,
      "job_koyou_proper": true,
      "job_koyou_free": true,
      "job_syouryu": 1,
      "personnel_syouryu": 1,
      "personnel_country_japan": true,
      "personnel_country_other": true
    }
  },
  {
    "model": "app_staffing.contactpreference",
    "pk": "bd0f9c5a-4d1b-4d92-a006-8044354635a0",
    "fields": {
      "company": "3efd25d0-989a-4fba-aa8d-b91708760eb1",
      "contact_id": "291dc792-d5a0-43fa-a500-e9e2273beaec",
      "created_user": "1957ab0f-b47c-455a-a7b7-4453cfffd05e",
      "created_time": "2019-04-10T09:14:40.795Z",
      "modified_user": "1957ab0f-b47c-455a-a7b7-4453cfffd05e",
      "modified_time": "2019-04-10T09:14:40.795Z",
      "wants_location_hokkaido_japan": true,
      "wants_location_touhoku_japan": true,
      "wants_location_kanto_japan": false,
      "wants_location_kansai_japan": false,
      "wants_location_chubu_japan": true,
      "wants_location_kyushu_japan": true,
      "wants_location_other_japan": true,
      "wants_location_chugoku_japan": true,
      "wants_location_shikoku_japan": true,
      "wants_location_toukai_japan": true,
      "job_koyou_proper": true,
      "job_koyou_free": true,
      "job_syouryu": 1,
      "personnel_syouryu": 1,
      "personnel_country_japan": true,
      "personnel_country_other": true
    }
  },
  {
    "model": "app_staffing.contactpreference",
    "pk": "44da1390-7111-42c0-abc0-d75046500595",
    "fields": {
      "company": "3efd25d0-989a-4fba-aa8d-b91708760eb1",
      "contact_id": "c117231f-8bf9-4379-b1a0-b0a71f497a61",
      "created_user": "1957ab0f-b47c-455a-a7b7-4453cfffd05e",
      "created_time": "2019-04-10T09:14:40.795Z",
      "modified_user": "1957ab0f-b47c-455a-a7b7-4453cfffd05e",
      "modified_time": "2019-04-10T09:14:40.795Z",
      "wants_location_hokkaido_japan": true,
      "wants_location_touhoku_japan": true,
      "wants_location_kanto_japan": true,
      "wants_location_kansai_japan": true,
      "wants_location_chubu_japan": true,
      "wants_location_kyushu_japan": true,
      "wants_location_other_japan": true,
      "wants_location_chugoku_japan": true,
      "wants_location_shikoku_japan": true,
      "wants_location_toukai_japan": true,
      "job_koyou_proper": true,
      "job_koyou_free": true,
      "job_syouryu": 1,
      "personnel_syouryu": 1,
      "personnel_country_japan": true,
      "personnel_country_other": true
    }
  },
  {
    "model": "app_staffing.contactpreference",
    "pk": "75560bcc-3dc1-42fb-a786-7d623b838401",
    "fields": {
      "company": "3efd25d0-989a-4fba-aa8d-b91708760eb1",
      "contact_id": "4acfeb11-e071-4901-ba90-4aeed52895d1",
      "created_user": "1957ab0f-b47c-455a-a7b7-4453cfffd05e",
      "created_time": "2019-04-10T09:14:40.795Z",
      "modified_user": "1957ab0f-b47c-455a-a7b7-4453cfffd05e",
      "modified_time": "2019-04-10T09:14:40.795Z",
      "wants_location_hokkaido_japan": true,
      "wants_location_touhoku_japan": true,
      "wants_location_kanto_japan": false,
      "wants_location_kansai_japan": false,
      "wants_location_chubu_japan": true,
      "wants_location_kyushu_japan": true,
      "wants_location_other_japan": true,
      "wants_location_chugoku_japan": true,
      "wants_location_shikoku_japan": true,
      "wants_location_toukai_japan": true,
      "job_koyou_proper": true,
      "job_koyou_free": true,
      "job_syouryu": 1,
      "personnel_syouryu": 1,
      "personnel_country_japan": true,
      "personnel_country_other": true
    }
  }
]
