[
  {
    "model": "app_staffing.organizationcategory",
    "pk": 1,
    "fields": {
        "name": "prospective",
        "order": 1
    }
  },
  {
    "model": "app_staffing.organizationcategory",
    "pk": 2,
    "fields": {
        "name": "approached",
        "order": 2
    }
  },
  {
    "model": "app_staffing.organizationcategory",
    "pk": 3,
    "fields": {
        "name": "exchanged",
        "order": 3
    }
  },
  {
    "model": "app_staffing.organizationcategory",
    "pk": 4,
    "fields": {
        "name": "client",
        "order": 4
    }
  },
  {
    "model": "app_staffing.organizationcategory",
    "pk": 5,
    "fields": {
        "name": "blacklist",
        "order": 5
    }
  },
  {
    "model": "app_staffing.organizationcountry",
    "pk": 1,
    "fields": {
        "name": "JP",
        "order": 1
    }
  },
  {
    "model": "app_staffing.organizationcountry",
    "pk": 2,
    "fields": {
        "name": "KR",
        "order": 2
    }
  },
  {
    "model": "app_staffing.organizationcountry",
    "pk": 3,
    "fields": {
        "name": "CN",
        "order": 3
    }
  },
  {
    "model": "app_staffing.organizationcountry",
    "pk": 4,
    "fields": {
        "name": "OTHER",
        "order": 4
    }
  },
  {
    "model": "app_staffing.organizationemployeenumber",
    "pk": 1,
    "fields": {
        "name": "very_low",
        "order": 1
    }
  },
  {
    "model": "app_staffing.organizationemployeenumber",
    "pk": 2,
    "fields": {
        "name": "low",
        "order": 2
    }
  },
  {
    "model": "app_staffing.organizationemployeenumber",
    "pk": 3,
    "fields": {
        "name": "middle",
        "order": 3
    }
  },
  {
    "model": "app_staffing.organizationemployeenumber",
    "pk": 4,
    "fields": {
        "name": "semi_middle",
        "order": 4
    }
  },
  {
    "model": "app_staffing.organizationemployeenumber",
    "pk": 5,
    "fields": {
        "name": "high",
        "order": 5
    }
  },
  {
    "model": "app_staffing.organizationemployeenumber",
    "pk": 6,
    "fields": {
        "name": "very_high",
        "order": 6
    }
  },
  {
    "model": "app_staffing.organization",
    "pk": "749303ca-7701-463e-83a8-8a5a35df1646",
    "fields": {
      "company": "3efd25d0-989a-4fba-aa8d-b91708760eb1",
      "created_user": "d31034e2-ca12-4a6f-b1dc-0be092d1ac5d",
      "created_time": "2021-04-09T07:42:27.484Z",
      "modified_user": "d31034e2-ca12-4a6f-b1dc-0be092d1ac5d",
      "modified_time": "2019-04-09T07:42:27.484Z",
      "corporate_number": 123,
      "name": "An Example Company",
      "address": "\u6771\u4eac\u90fd\u5343\u4ee3\u7530\u533a\u4e38\u306e\u5185X-X-X",
      "building": "building",
      "domain_name": "example.com",
      "settlement_month": 1,
      "capital_man_yen": 2000,
      "capital_man_yen_required_for_transactions": 1000,
      "establishment_year": 10,
      "score": 3,
      "is_blacklisted": false,
      "establishment_date": "2000-01-01",
      "has_distribution": true,
      "contract": true,
      "organization_category": 4,
      "organization_employee_number": 1,
      "organization_country": 1,
      "has_p_mark_or_isms": true,
      "has_haken": false
    }
  },
    {
    "model": "app_staffing.organization",
    "pk": "5468c29f-7b35-4540-b9d0-c1807d945734",
    "fields": {
      "company": "3efd25d0-989a-4fba-aa8d-b91708760eb1",
      "created_user": "d31034e2-ca12-4a6f-b1dc-0be092d1ac5d",
      "created_time": "2019-04-10T07:42:27.484Z",
      "modified_user": "d31034e2-ca12-4a6f-b1dc-0be092d1ac5d",
      "modified_time": "2019-04-10T07:42:27.484Z",
      "corporate_number": 456,
      "name": "An Example Company 2",
      "address": "",
      "building": "",
      "domain_name": "",
      "settlement_month": 1,
      "capital_man_yen": 150,
      "capital_man_yen_required_for_transactions": 100,
      "establishment_year": 10,
      "score": 2,
      "contract": false,
      "is_blacklisted": false,
      "establishment_date": null,
      "organization_category": 1,
      "organization_employee_number": 1,
      "organization_country": 1,
      "has_p_mark_or_isms": false,
      "has_haken": false
    }
  },
  {
    "model": "app_staffing.organization",
    "pk": "5468c29f-7b35-4540-b9d0-c1807d945735",
    "fields": {
      "company": "3efd25d0-989a-4fba-aa8d-b91708760eb1",
      "created_user": "d31034e2-ca12-4a6f-b1dc-0be092d1ac5d",
      "created_time": "2019-04-10T07:42:27.484Z",
      "modified_user": "d31034e2-ca12-4a6f-b1dc-0be092d1ac5d",
      "modified_time": "2019-04-10T07:42:27.484Z",
      "corporate_number": 789,
      "name": "An Example Company 3",
      "address": "",
      "building": "",
      "domain_name": "example.com",
      "settlement_month": 1,
      "capital_man_yen": null,
      "capital_man_yen_required_for_transactions": 100,
      "establishment_year": 10,
      "score": 1,
      "contract": false,
      "is_blacklisted": false,
      "establishment_date": "2021-01-01",
      "organization_category": 1,
      "organization_employee_number": 1,
      "organization_country": 1
    }
  },
  {
    "model": "app_staffing.organization",
    "pk": "5468c29f-7b35-4540-b9d0-c1807d945736",
    "fields": {
      "company": "3efd25d0-989a-4fba-aa8d-b91708760eb1",
      "created_user": "d31034e2-ca12-4a6f-b1dc-0be092d1ac5d",
      "created_time": "2020-04-10T07:42:27.484Z",
      "modified_user": "d31034e2-ca12-4a6f-b1dc-0be092d1ac5d",
      "modified_time": "2019-04-10T07:42:27.484Z",
      "corporate_number": 987,
      "name": "An Example Company 4",
      "address": "",
      "building": "",
      "domain_name": "",
      "settlement_month": 1,
      "capital_man_yen": 100,
      "capital_man_yen_required_for_transactions": 100,
      "establishment_year": 10,
      "score": 3,
      "contract": false,
      "is_blacklisted": false,
      "establishment_date": "2021-01-01",
      "has_distribution": true,
      "organization_category": 1,
      "organization_employee_number": 1,
      "organization_country": 1
    }
  },
  {
    "model": "app_staffing.organization",
    "pk": "5468c29f-7b35-4540-b9d0-c1807d945737",
    "fields": {
      "company": "3efd25d0-989a-4fba-aa8d-b91708760eb1",
      "created_user": "d31034e2-ca12-4a6f-b1dc-0be092d1ac5d",
      "created_time": "2019-04-10T07:42:27.484Z",
      "modified_user": "d31034e2-ca12-4a6f-b1dc-0be092d1ac5d",
      "modified_time": "2019-04-10T07:42:27.484Z",
      "corporate_number": 654,
      "name": "An Example Company 5",
      "address": "",
      "building": "",
      "domain_name": "",
      "settlement_month": 1,
      "capital_man_yen": null,
      "capital_man_yen_required_for_transactions": 100,
      "establishment_year": 10,
      "score": 4,
      "contract": false,
      "is_blacklisted": false,
      "establishment_date": null,
      "organization_category": 1,
      "organization_employee_number": 1,
      "organization_country": 1
    }
  },
  {
    "model": "app_staffing.organization",
    "pk": "5468c29f-7b35-4540-b9d0-c1807d945735",
    "fields": {
      "company": "3efd25d0-989a-4fba-aa8d-b91708760eb1",
      "created_user": "d31034e2-ca12-4a6f-b1dc-0be092d1ac5d",
      "created_time": "2019-04-10T07:42:27.484Z",
      "modified_user": "d31034e2-ca12-4a6f-b1dc-0be092d1ac5d",
      "modified_time": "2019-04-10T07:42:27.484Z",
      "corporate_number": 789,
      "name": "An Example Company 6",
      "address": "",
      "building": "",
      "domain_name": "",
      "settlement_month": 1,
      "capital_man_yen": 2000,
      "capital_man_yen_required_for_transactions": 100,
      "establishment_year": 10,
      "score": 1,
      "contract": false,
      "is_blacklisted": false,
      "establishment_date": "2000-01-01",
      "has_distribution": false,
      "organization_category": 1,
      "organization_employee_number": 1,
      "organization_country": 1,
      "has_p_mark_or_isms": false,
      "has_haken": true
    }
  }
]
