[
  {
    "model": "app_staffing.company",
    "pk": "3efd25d0-989a-4fba-aa8d-b91708760eb1",
    "fields": {
      "name": "Tenant A",
      "deactivated_time": "2022-02-02T00:00:00.000Z"
    }
  },
  {
    "model": "app_staffing.company",
    "pk": "0639df05-8db5-40f2-a25d-6bcd3f8ae4ca",
    "fields": {
      "name": "Tenant B"
    }
  }
]
